#
# A fatal error has been detected by the Java Runtime Environment:
#
#  EXCEPTION_ACCESS_VIOLATION (0xc0000005) at pc=0x00000000771b1da0, pid=12892, tid=23484
#
# JRE version: Java(TM) SE Runtime Environment (7.0_71-b14) (build 1.7.0_71-b14)
# Java VM: Java HotSpot(TM) 64-Bit Server VM (24.71-b01 mixed mode windows-amd64 compressed oops)
# Problematic frame:
# C  [ntdll.dll+0x51da0]
#
# Failed to write core dump. Minidumps are not enabled by default on client versions of Windows
#
# If you would like to submit a bug report, please visit:
#   http://bugreport.sun.com/bugreport/crash.jsp
# The crash happened outside the Java Virtual Machine in native code.
# See problematic frame for where to report the bug.
#

---------------  T H R E A D  ---------------

Current thread (0x000000000ae86800):  JavaThread "Finalizer" daemon [_thread_in_native, id=23484, stack(0x000000000c1e0000,0x000000000c2e0000)]

siginfo: ExceptionCode=0xc0000005, reading address 0x00000000d236e168

Registers:
RAX=0x000000b300000000, RBX=0x00000000d236e160, RCX=0x000000ffffffffff, RDX=0x000000000c54cd20
RSP=0x000000000c2df490, RBP=0x0000000000000000, RSI=0x0000000000150000, RDI=0x000000000c54cd30
R8 =0x000000000c54cd30, R9 =0x00000007d7def788, R10=0x0000000002b42b84, R11=0x000000005c573900
R12=0x0000000000000000, R13=0x000000077c6b3968, R14=0x000000000c2df638, R15=0x000000000ae86800
RIP=0x00000000771b1da0, EFLAGS=0x0000000000010206

Top of Stack: (sp=0x000000000c2df490)
0x000000000c2df490:   000000000c500080 000000000c500170
0x000000000c2df4a0:   000000000c564b40 0000000000150000
0x000000000c2df4b0:   0000000000000000 000000005c49d848
0x000000000c2df4c0:   000000000ae86800 000000000c2df638
0x000000000c2df4d0:   000000000ae86800 000000000c2df638
0x000000000c2df4e0:   000000077c6b3968 0000000000000000
0x000000000c2df4f0:   0000000002b360f8 000000000ae86800
0x000000000c2df500:   000000000c2df610 0000000077062c7a
0x000000000c2df510:   0000000000000000 000000077c6b3968
0x000000000c2df520:   00000015000004b5 000000140000048c
0x000000000c2df530:   000000000ae76940 0000000180017f18
0x000000000c2df540:   000000000c2dfa68 0000000000000000
0x000000000c2df550:   000000000ae76940 000000005c42f63e
0x000000000c2df560:   000000077c6b3968 0000000180006c3d
0x000000000c2df570:   00006d6b247b3190 000000000ae86800
0x000000000c2df580:   0000000000000001 000000000000000c 

Instructions: (pc=0x00000000771b1da0)
0x00000000771b1d80:   ff ff 00 00 00 48 33 de 48 23 c1 48 c1 eb 04 48
0x00000000771b1d90:   33 d8 48 33 1d 27 16 0e 00 48 c1 e3 04 0f 0d 0b
0x00000000771b1da0:   4c 8b 63 08 49 bd 01 00 00 00 01 00 00 00 49 be
0x00000000771b1db0:   ff 7f 00 00 ff ff ff ff c6 42 0f 80 c6 42 0e 00 


Register to memory mapping:

RAX=0x000000b300000000 is an unknown value
RBX=0x00000000d236e160 is an unknown value
RCX=0x000000ffffffffff is an unknown value
RDX=0x000000000c54cd20 is an unknown value
RSP=0x000000000c2df490 is pointing into the stack for thread: 0x000000000ae86800
RBP=0x0000000000000000 is an unknown value
RSI=0x0000000000150000 is an unknown value
RDI=0x000000000c54cd30 is an unknown value
R8 =0x000000000c54cd30 is an unknown value
R9 =0x00000007d7def788 is an oop
java.lang.ref.Finalizer 
 - klass: 'java/lang/ref/Finalizer'
R10=0x0000000002b42b84 is at code_begin+644 in an Interpreter codelet
method entry point (kind = native)  [0x0000000002b42900, 0x0000000002b431a0]  2208 bytes
R11=0x000000005c573900 is an unknown value
R12=0x0000000000000000 is an unknown value
R13=0x000000077c6b3968 is an oop
{method} 
 - klass: {other class}
R14=0x000000000c2df638 is pointing into the stack for thread: 0x000000000ae86800
R15=0x000000000ae86800 is a thread


Stack: [0x000000000c1e0000,0x000000000c2e0000],  sp=0x000000000c2df490,  free space=1021k
Native frames: (J=compiled Java code, j=interpreted, Vv=VM code, C=native code)
C  [ntdll.dll+0x51da0]

[error occurred during error reporting (printing native stack), id 0xc0000005]

Java frames: (J=compiled Java code, j=interpreted, Vv=VM code)
j  com.sun.jna.Native.free(J)V+0
j  com.sun.jna.Memory.free(J)V+1
j  com.sun.jna.Memory.dispose()V+4
j  com.sun.jna.Memory.finalize()V+1
j  java.lang.System$2.invokeFinalize(Ljava/lang/Object;)V+1
j  java.lang.ref.Finalizer.runFinalizer(Lsun/misc/JavaLangAccess;)V+46
j  java.lang.ref.Finalizer.access$100(Ljava/lang/ref/Finalizer;Lsun/misc/JavaLangAccess;)V+2
j  java.lang.ref.Finalizer$FinalizerThread.run()V+45
v  ~StubRoutines::call_stub

---------------  P R O C E S S  ---------------

Java Threads: ( => current thread )
  0x000000000aee7000 JavaThread "Service Thread" daemon [_thread_blocked, id=22904, stack(0x000000000c8a0000,0x000000000c9a0000)]
  0x000000000aee6000 JavaThread "C2 CompilerThread1" daemon [_thread_blocked, id=18000, stack(0x000000000c2f0000,0x000000000c3f0000)]
  0x000000000aedf800 JavaThread "C2 CompilerThread0" daemon [_thread_blocked, id=22740, stack(0x000000000c680000,0x000000000c780000)]
  0x000000000aedd800 JavaThread "Attach Listener" daemon [_thread_blocked, id=22572, stack(0x000000000bf30000,0x000000000c030000)]
  0x000000000aed6800 JavaThread "Signal Dispatcher" daemon [_thread_blocked, id=23260, stack(0x000000000c400000,0x000000000c500000)]
=>0x000000000ae86800 JavaThread "Finalizer" daemon [_thread_in_native, id=23484, stack(0x000000000c1e0000,0x000000000c2e0000)]
  0x000000000ae7f000 JavaThread "Reference Handler" daemon [_thread_blocked, id=21844, stack(0x000000000c0b0000,0x000000000c1b0000)]
  0x000000000227d800 JavaThread "main" [_thread_in_native, id=23264, stack(0x0000000002a30000,0x0000000002b30000)]

Other Threads:
  0x000000000ae77800 VMThread [stack: 0x000000000be20000,0x000000000bf20000] [id=20276]
  0x000000000aef9000 WatcherThread [stack: 0x000000000ca10000,0x000000000cb10000] [id=23280]

VM state:not at safepoint (normal execution)

VM Mutex/Monitor currently owned by a thread: None

Heap
 PSYoungGen      total 38400K, used 3752K [0x00000007d5c80000, 0x00000007d8700000, 0x0000000800000000)
  eden space 33280K, 5% used [0x00000007d5c80000,0x00000007d5e6fea0,0x00000007d7d00000)
  from space 5120K, 34% used [0x00000007d7d00000,0x00000007d7eba168,0x00000007d8200000)
  to   space 5120K, 0% used [0x00000007d8200000,0x00000007d8200000,0x00000007d8700000)
 ParOldGen       total 86016K, used 8K [0x0000000781600000, 0x0000000786a00000, 0x00000007d5c80000)
  object space 86016K, 0% used [0x0000000781600000,0x0000000781602000,0x0000000786a00000)
 PSPermGen       total 21504K, used 4929K [0x000000077c400000, 0x000000077d900000, 0x0000000781600000)
  object space 21504K, 22% used [0x000000077c400000,0x000000077c8d0430,0x000000077d900000)

Card table byte_map: [0x0000000005b30000,0x0000000005f50000] byte_map_base: 0x0000000001f4e000

Polling page: 0x0000000000120000

Code Cache  [0x0000000002b30000, 0x0000000002da0000, 0x0000000005b30000)
 total_blobs=411 nmethods=170 adapters=194 free_code_cache=48353Kb largest_free_block=49483584

Compilation events (10 events):
Event: 21.332 Thread 0x000000000aedf800 nmethod 162 0x0000000002bec710 code [0x0000000002bec880, 0x0000000002becc18]
Event: 21.332 Thread 0x000000000aee6000 nmethod 165 0x0000000002bec250 code [0x0000000002bec3a0, 0x0000000002bec658]
Event: 21.429 Thread 0x000000000aedf800  166  s          java.util.Hashtable::get (70 bytes)
Event: 21.432 Thread 0x000000000aedf800 nmethod 166 0x0000000002bee0d0 code [0x0000000002bee220, 0x0000000002bee638]
Event: 21.953 Thread 0x000000000aee6000  167             sun.misc.VM::addFinalRefCount (24 bytes)
Event: 21.953 Thread 0x000000000aedf800  168             java.lang.ref.Reference::access$100 (4 bytes)
Event: 21.953 Thread 0x000000000aee6000 nmethod 167 0x0000000002bfab10 code [0x0000000002bfac40, 0x0000000002bfacb8]
Event: 21.953 Thread 0x000000000aedf800 nmethod 168 0x0000000002beded0 code [0x0000000002bee000, 0x0000000002bee058]
Event: 21.953 Thread 0x000000000aedf800  170   !         java.lang.ref.ReferenceQueue::enqueue (104 bytes)
Event: 21.957 Thread 0x000000000aedf800 nmethod 170 0x0000000002bed390 code [0x0000000002bed500, 0x0000000002bedc88]

GC Heap History (2 events):
Event: 21.938 GC heap before
{Heap before GC invocations=1 (full 0):
 PSYoungGen      total 38400K, used 33280K [0x00000007d5c80000, 0x00000007d8700000, 0x0000000800000000)
  eden space 33280K, 100% used [0x00000007d5c80000,0x00000007d7d00000,0x00000007d7d00000)
  from space 5120K, 0% used [0x00000007d8200000,0x00000007d8200000,0x00000007d8700000)
  to   space 5120K, 0% used [0x00000007d7d00000,0x00000007d7d00000,0x00000007d8200000)
 ParOldGen       total 86016K, used 0K [0x0000000781600000, 0x0000000786a00000, 0x00000007d5c80000)
  object space 86016K, 0% used [0x0000000781600000,0x0000000781600000,0x0000000786a00000)
 PSPermGen       total 21504K, used 4927K [0x000000077c400000, 0x000000077d900000, 0x0000000781600000)
  object space 21504K, 22% used [0x000000077c400000,0x000000077c8cfe18,0x000000077d900000)
Event: 21.943 GC heap after
Heap after GC invocations=1 (full 0):
 PSYoungGen      total 38400K, used 1768K [0x00000007d5c80000, 0x00000007d8700000, 0x0000000800000000)
  eden space 33280K, 0% used [0x00000007d5c80000,0x00000007d5c80000,0x00000007d7d00000)
  from space 5120K, 34% used [0x00000007d7d00000,0x00000007d7eba168,0x00000007d8200000)
  to   space 5120K, 0% used [0x00000007d8200000,0x00000007d8200000,0x00000007d8700000)
 ParOldGen       total 86016K, used 8K [0x0000000781600000, 0x0000000786a00000, 0x00000007d5c80000)
  object space 86016K, 0% used [0x0000000781600000,0x0000000781602000,0x0000000786a00000)
 PSPermGen       total 21504K, used 4927K [0x000000077c400000, 0x000000077d900000, 0x0000000781600000)
  object space 21504K, 22% used [0x000000077c400000,0x000000077c8cfe18,0x000000077d900000)
}

Deoptimization events (10 events):
Event: 3.415 Thread 0x000000000227d800 Uncommon trap: reason=predicate action=maybe_recompile pc=0x0000000002babb8c method=com.sun.jna.Structure.read()V @ 88
Event: 3.576 Thread 0x000000000227d800 Uncommon trap: reason=null_check action=make_not_entrant pc=0x0000000002bb8e0c method=com.sun.jna.Native.getNativeSize(Ljava/lang/Class;Ljava/lang/Object;)I @ 64
Event: 3.589 Thread 0x000000000227d800 Uncommon trap: reason=null_check action=make_not_entrant pc=0x0000000002bbd7ec method=com.sun.jna.Structure.readField(Lcom/sun/jna/Structure$StructField;)Ljava/lang/Object; @ 33
Event: 3.591 Thread 0x000000000227d800 Uncommon trap: reason=null_check action=make_not_entrant pc=0x0000000002bbb0d4 method=com.sun.jna.Native.getNativeSize(Ljava/lang/Class;)I @ 4
Event: 3.598 Thread 0x000000000227d800 Uncommon trap: reason=null_check action=make_not_entrant pc=0x0000000002bc14c4 method=com.sun.jna.Pointer.getValue(JLjava/lang/Class;Ljava/lang/Object;)Ljava/lang/Object; @ 7
Event: 3.638 Thread 0x000000000227d800 Uncommon trap: reason=null_check action=make_not_entrant pc=0x0000000002bcc3f0 method=com.sun.jna.Structure.size(Ljava/lang/Class;Lcom/sun/jna/Structure;)I @ 15
Event: 3.653 Thread 0x000000000227d800 Uncommon trap: reason=null_check action=make_not_entrant pc=0x0000000002bcefd4 method=com.sun.jna.Structure.size(Ljava/lang/Class;Lcom/sun/jna/Structure;)I @ 15
Event: 10.791 Thread 0x000000000227d800 Uncommon trap: reason=null_check action=make_not_entrant pc=0x0000000002be7034 method=com.sun.jna.Structure.deriveLayout(ZZ)Lcom/sun/jna/Structure$LayoutInfo; @ 235
Event: 12.460 Thread 0x000000000227d800 Uncommon trap: reason=null_check action=make_not_entrant pc=0x0000000002bd4db0 method=com.sun.jna.Structure.getNativeAlignment(Ljava/lang/Class;Ljava/lang/Object;Z)I @ 7
Event: 17.547 Thread 0x000000000227d800 Uncommon trap: reason=null_check action=make_not_entrant pc=0x0000000002bf6d1c method=com.sun.jna.Structure.deriveLayout(ZZ)Lcom/sun/jna/Structure$LayoutInfo; @ 387

Internal exceptions (10 events):
Event: 3.401 Thread 0x000000000227d800 Threw 0x00000007d607bee0 at C:\re\jdk7u71\1605\hotspot\src\share\vm\prims\jvm.cpp:1281
Event: 3.575 Thread 0x000000000227d800 Implicit null exception at 0x0000000002bb815d to 0x0000000002bb8df5
Event: 3.589 Thread 0x000000000227d800 Implicit null exception at 0x0000000002bbd2ff to 0x0000000002bbd7c1
Event: 3.591 Thread 0x000000000227d800 Implicit null exception at 0x0000000002bbad10 to 0x0000000002bbb0c5
Event: 3.598 Thread 0x000000000227d800 Implicit null exception at 0x0000000002bc0a43 to 0x0000000002bc14ad
Event: 3.638 Thread 0x000000000227d800 Implicit null exception at 0x0000000002bcb9ab to 0x0000000002bcc3e5
Event: 3.653 Thread 0x000000000227d800 Implicit null exception at 0x0000000002bce587 to 0x0000000002bcefc9
Event: 10.790 Thread 0x000000000227d800 Implicit null exception at 0x0000000002be62d8 to 0x0000000002be701d
Event: 12.460 Thread 0x000000000227d800 Implicit null exception at 0x0000000002bd4802 to 0x0000000002bd4d91
Event: 17.547 Thread 0x000000000227d800 Implicit null exception at 0x0000000002bf5f0a to 0x0000000002bf6d05

Events (10 events):
Event: 21.958 Executing VM operation: RevokeBias
Event: 21.958 Executing VM operation: RevokeBias done
Event: 21.958 Executing VM operation: RevokeBias
Event: 21.958 Executing VM operation: RevokeBias done
Event: 21.958 Executing VM operation: RevokeBias
Event: 21.958 Executing VM operation: RevokeBias done
Event: 21.958 Executing VM operation: RevokeBias
Event: 21.958 Executing VM operation: RevokeBias done
Event: 21.958 Executing VM operation: BulkRevokeBias
Event: 21.958 Executing VM operation: BulkRevokeBias done


Dynamic libraries:
0x000000013f370000 - 0x000000013f3a3000 	C:\Program Files\Java\jre7\bin\javaw.exe
0x0000000077160000 - 0x000000007730b000 	C:\Windows\SYSTEM32\ntdll.dll
0x0000000077040000 - 0x000000007715f000 	C:\Windows\system32\kernel32.dll
0x000007fefd170000 - 0x000007fefd1db000 	C:\Windows\system32\KERNELBASE.dll
0x000007fefde00000 - 0x000007fefdedb000 	C:\Windows\system32\ADVAPI32.dll
0x000007fefd7d0000 - 0x000007fefd86f000 	C:\Windows\system32\msvcrt.dll
0x000007fefdb30000 - 0x000007fefdb4f000 	C:\Windows\SYSTEM32\sechost.dll
0x000007fefe1d0000 - 0x000007fefe2fe000 	C:\Windows\system32\RPCRT4.dll
0x0000000076f40000 - 0x000000007703a000 	C:\Windows\system32\USER32.dll
0x000007fefd6a0000 - 0x000007fefd707000 	C:\Windows\system32\GDI32.dll
0x000007fefd870000 - 0x000007fefd87e000 	C:\Windows\system32\LPK.dll
0x000007fefdd30000 - 0x000007fefddfa000 	C:\Windows\system32\USP10.dll
0x000007fefb9d0000 - 0x000007fefbbc4000 	C:\Windows\WinSxS\amd64_microsoft.windows.common-controls_6595b64144ccf1df_6.0.7600.16385_none_fa645303170382f6\COMCTL32.dll
0x000007fefe300000 - 0x000007fefe371000 	C:\Windows\system32\SHLWAPI.dll
0x000007fefe1a0000 - 0x000007fefe1ce000 	C:\Windows\system32\IMM32.DLL
0x000007feff240000 - 0x000007feff349000 	C:\Windows\system32\MSCTF.dll
0x000007fefd080000 - 0x000007fefd0bc000 	C:\Windows\system32\nvinitx.dll
0x000000000f000000 - 0x000000000f006000 	C:\Program Files\NVIDIA Corporation\CoProcManager\_etoured.dll
0x000007fefa630000 - 0x000007fefa674000 	C:\Program Files\NVIDIA Corporation\CoProcManager\nvd3d9wrapx.dll
0x000007fefdb50000 - 0x000007fefdd27000 	C:\Windows\system32\SETUPAPI.dll
0x000007fefd2e0000 - 0x000007fefd316000 	C:\Windows\system32\CFGMGR32.dll
0x000007fefd8d0000 - 0x000007fefd9a7000 	C:\Windows\system32\OLEAUT32.dll
0x000007fefd490000 - 0x000007fefd691000 	C:\Windows\system32\ole32.dll
0x000007fefd2c0000 - 0x000007fefd2da000 	C:\Windows\system32\DEVOBJ.dll
0x000007fefa530000 - 0x000007fefa572000 	C:\Program Files\NVIDIA Corporation\CoProcManager\nvdxgiwrapx.dll
0x000000006a460000 - 0x000000006a532000 	C:\Program Files\Java\jre7\bin\msvcr100.dll
0x000000005c390000 - 0x000000005cb63000 	C:\Program Files\Java\jre7\bin\server\jvm.dll
0x000007fef7430000 - 0x000007fef7439000 	C:\Windows\system32\WSOCK32.dll
0x000007fefe150000 - 0x000007fefe19d000 	C:\Windows\system32\WS2_32.dll
0x000007fefe140000 - 0x000007fefe148000 	C:\Windows\system32\NSI.dll
0x000007fefad00000 - 0x000007fefad3b000 	C:\Windows\system32\WINMM.dll
0x0000000077320000 - 0x0000000077327000 	C:\Windows\system32\PSAPI.DLL
0x0000000073940000 - 0x000000007394f000 	C:\Program Files\Java\jre7\bin\verify.dll
0x000000006cbc0000 - 0x000000006cbe8000 	C:\Program Files\Java\jre7\bin\java.dll
0x0000000073920000 - 0x0000000073935000 	C:\Program Files\Java\jre7\bin\zip.dll
0x000007fefc920000 - 0x000007fefc937000 	C:\Windows\system32\CRYPTSP.dll
0x000007fefc610000 - 0x000007fefc657000 	C:\Windows\system32\rsaenh.dll
0x000007fefc270000 - 0x000007fefc28e000 	C:\Windows\system32\USERENV.dll
0x000007fefd0c0000 - 0x000007fefd0cf000 	C:\Windows\system32\profapi.dll
0x000007fefcf70000 - 0x000007fefcf7f000 	C:\Windows\system32\CRYPTBASE.dll
0x0000000073680000 - 0x0000000073699000 	C:\Program Files\Java\jre7\bin\net.dll
0x000007fefc8c0000 - 0x000007fefc914000 	C:\Windows\system32\mswsock.dll
0x000007fefca40000 - 0x000007fefca47000 	C:\Windows\System32\wship6.dll
0x000007fefab00000 - 0x000007fefab27000 	C:\Windows\system32\IPHLPAPI.DLL
0x000007fefaa20000 - 0x000007fefaa2b000 	C:\Windows\system32\WINNSI.DLL
0x000007fefa340000 - 0x000007fefa358000 	C:\Windows\system32\dhcpcsvc.DLL
0x000007fefa230000 - 0x000007fefa241000 	C:\Windows\system32\dhcpcsvc6.DLL
0x000000006f3e0000 - 0x000000006f3f1000 	C:\Program Files\Java\jre7\bin\nio.dll
0x0000000180000000 - 0x0000000180038000 	C:\Users\Dell\AppData\Local\Temp\jna-2126305\jna2627260693131933064.dll
0x000007feee510000 - 0x000007feee635000 	C:\Windows\system32\dbghelp.dll

VM Arguments:
jvm_args: -Dfile.encoding=Cp1252 
java_command: debugger.testing
Launcher Type: SUN_STANDARD

Environment Variables:
PATH=C:\Program Files (x86)\NVIDIA Corporation\PhysX\Common;C:\Windows\system32;C:\Windows;C:\Windows\System32\Wbem;C:\Windows\System32\WindowsPowerShell\v1.0\;C:\Program Files (x86)\Common Files\Roxio Shared\DLLShared\;C:\Program Files (x86)\Common Files\Roxio Shared\10.0\DLLShared\;C:\Program Files\MATLAB\R2012b\runtime\win64;C:\Program Files\MATLAB\R2012b\bin;C:\Program Files\OpenVPN\bin;C:\Program Files (x86)\OpenVPN\bin;
USERNAME=Dell
OS=Windows_NT
PROCESSOR_IDENTIFIER=Intel64 Family 6 Model 42 Stepping 7, GenuineIntel



---------------  S Y S T E M  ---------------

OS: Windows 7 , 64 bit Build 7600 

CPU:total 4 (2 cores per cpu, 2 threads per core) family 6 model 42 stepping 7, cmov, cx8, fxsr, mmx, sse, sse2, sse3, ssse3, sse4.1, sse4.2, popcnt, aes, ht, tsc, tscinvbit

Memory: 4k page, physical 8293552k(2237772k free), swap 16585208k(8905988k free)

vm_info: Java HotSpot(TM) 64-Bit Server VM (24.71-b01) for windows-amd64 JRE (1.7.0_71-b14), built on Sep 26 2014 16:16:12 by "java_re" with unknown MS VC++:1600

time: Fri Apr 03 16:10:28 2015
elapsed time: 21 seconds

